<svg xmlns="http://www.w3.org/2000/svg" width="13" height="2" viewBox="0 0 13 2">
  <line id="Line_41" data-name="Line 41" x2="11" transform="translate(1 1)" fill="none" stroke="#324755" stroke-linecap="round" stroke-width="2"/>
</svg>
